[
    {
        "_id": "b-0",
        "_parentId": "a-0",
        "_type": "block",
        "_classes": "",
        "title": " ",
        "displayTitle": "",
        "body": "",
        "_trackingId": 1
    },
    {
        "_id": "b-1",
        "_parentId": "a-0",
        "_type": "block",
        "_classes": "",
        "title": " ",
        "displayTitle": "",
        "body": "",
        "_trackingId": 206
    },
    {
        "_id": "b-3a",
        "_parentId": "a-3a",
        "_type": "block",
        "_classes": "",
        "title": " ",
        "displayTitle": "",
        "body": "",
        "_trackingId": 236
    },
    {
        "_id": "b-4a",
        "_parentId": "a-3a",
        "_type": "block",
        "_classes": "",
        "title": " ",
        "displayTitle": "",
        "body": "",
        "_trackingId": 237
    },
    {
        "_id": "b-5a",
        "_parentId": "a-3a",
        "_type": "block",
        "_classes": "",
        "title": " ",
        "displayTitle": "",
        "body": "",
        "_trackingId": 238
    },
    {
        "_id": "b-7",
        "_parentId": "a-3b",
        "_type": "block",
        "_classes": "",
        "title": " ",
        "displayTitle": "",
        "body": "",
        "_trackingId": 240
    },
    {
        "_id": "b-8",
        "_parentId": "a-3b",
        "_type": "block",
        "_classes": "",
        "title": " ",
        "displayTitle": "",
        "body": "",
        "_trackingId": 207
    },
    {
        "_id": "b-9",
        "_parentId": "a-3b",
        "_type": "block",
        "_classes": "",
        "title": " ",
        "displayTitle": "",
        "body": "",
        "_trackingId": 239
    },
    {
        "_id": "b-10",
        "_parentId": "a-100",
        "_type": "block",
        "_classes": "",
        "title": " ",
        "displayTitle": "",
        "body": "",
        "_trackingId": 208
    },
    {
        "_id": "b-15",
        "_parentId": "a-100",
        "_type": "block",
        "_classes": "",
        "title": " ",
        "displayTitle": "",
        "body": "",
        "_trackingId": 187
    },
    {
        "_id": "b-20",
        "_parentId": "a-100",
        "_type": "block",
        "_classes": "",
        "title": " ",
        "displayTitle": "",
        "body": "",
        "_trackingId": 3
    },
    {
        "_id": "b-25",
        "_parentId": "a-100",
        "_type": "block",
        "_classes": "",
        "title": " ",
        "displayTitle": "",
        "body": "",
        "_trackingId": 216
    },
    {
        "_id": "b-29",
        "_parentId": "a-100",
        "_type": "block",
        "_classes": "",
        "title": " ",
        "displayTitle": "",
        "body": "",
        "_trackingId": 213
    },
    {
        "_id": "b-30",
        "_parentId": "a-150",
        "_type": "block",
        "_classes": "",
        "title": " ",
        "displayTitle": "",
        "body": "",
        "_trackingId": 229
    },
    {
        "_id": "b-31",
        "_parentId": "a-150",
        "_type": "block",
        "_classes": "",
        "title": " ",
        "displayTitle": "",
        "body": "",
        "_trackingId": 230
    },
    {
        "_id": "b-35",
        "_parentId": "a-150",
        "_type": "block",
        "_classes": "",
        "title": " ",
        "displayTitle": "",
        "body": "",
        "_trackingId": 217
    },
    {
        "_id": "b-40",
        "_parentId": "a-150",
        "_type": "block",
        "_classes": "",
        "title": " ",
        "displayTitle": "",
        "body": "",
        "_trackingId": 231
    },
    {
        "_id": "b-41",
        "_parentId": "a-150",
        "_type": "block",
        "_classes": "",
        "title": " ",
        "displayTitle": "",
        "body": "",
        "_trackingId": 232
    },
    {
        "_id": "b-45",
        "_parentId": "a-150",
        "_type": "block",
        "_classes": "",
        "title": "",
        "displayTitle": "",
        "body": "",
        "_trackingId": 4
    },
    {
        "_id": "b-49",
        "_parentId": "a-150",
        "_type": "block",
        "_classes": "",
        "title": "",
        "displayTitle": "",
        "body": "",
        "_trackingId": 218
    },
    {
        "_id": "b-50",
        "_parentId": "a-200",
        "_type": "block",
        "_classes": "",
        "title": " ",
        "displayTitle": "",
        "body": "",
        "_trackingId": 233
    },
    {
        "_id": "b-55",
        "_parentId": "a-200",
        "_type": "block",
        "_classes": "",
        "title": " ",
        "displayTitle": "",
        "body": "",
        "_trackingId": 234
    },
    {
        "_id": "b-60",
        "_parentId": "a-200",
        "_type": "block",
        "_classes": "",
        "title": " ",
        "displayTitle": "",
        "body": "",
        "_trackingId": 8
    },
    {
        "_id": "b-65",
        "_parentId": "a-200",
        "_type": "block",
        "_classes": "",
        "title": " ",
        "displayTitle": "",
        "body": "",
        "_trackingId": 175
    },
    {
        "_id": "b-80",
        "_parentId": "a-200",
        "_type": "block",
        "_classes": "",
        "title": " ",
        "displayTitle": "",
        "body": "",
        "_trackingId": 179
    },
    {
        "_id": "b-95",
        "_parentId": "a-200",
        "_type": "block",
        "_classes": "",
        "title": " ",
        "displayTitle": "",
        "body": "",
        "_trackingId": 9
    },
    {
        "_id": "b-300",
        "_parentId": "a-300",
        "_type": "block",
        "_classes": "",
        "title": "",
        "displayTitle": "",
        "body": "",
        "_trackingId": 18
    },
    {
        "_id": "b-315",
        "_parentId": "a-300",
        "_type": "block",
        "_classes": "",
        "title": " ",
        "displayTitle": "",
        "body": "",
        "_trackingId": 21
    },
    {
        "_id": "b-320",
        "_parentId": "a-300",
        "_type": "block",
        "_classes": "",
        "title": "",
        "displayTitle": "",
        "body": "",
        "_trackingId": 22
    },
    {
        "_id": "b-330",
        "_parentId": "a-300",
        "_type": "block",
        "_classes": "",
        "title": "",
        "displayTitle": "",
        "body": "",
        "_trackingId": 199
    },
    {
        "_id": "b-340a",
        "_parentId": "a-340a",
        "_type": "block",
        "_classes": "",
        "title": "",
        "displayTitle": "",
        "body": "",
        "_trackingId": 200
    },
    {
        "_id": "b-341a",
        "_parentId": "a-340a",
        "_type": "block",
        "_classes": "",
        "title": "",
        "displayTitle": "",
        "body": "",
        "_trackingId": 201
    },
    {
        "_id": "b-380",
        "_parentId": "a-300",
        "_type": "block",
        "_classes": "",
        "title": "",
        "displayTitle": "",
        "body": "",
        "_trackingId": 192
    },
    {
        "_id": "b-395",
        "_parentId": "a-300",
        "_type": "block",
        "_classes": "",
        "title": "",
        "displayTitle": "",
        "body": "",
        "_trackingId": 32
    },
    {
        "_id": "b-500",
        "_parentId": "a-400",
        "_type": "block",
        "_classes": "",
        "title": " ",
        "displayTitle": "",
        "body": "",
        "_trackingId": 33
    },
    {
        "_id": "b-503",
        "_parentId": "a-400",
        "_type": "block",
        "_classes": "",
        "title": " ",
        "displayTitle": "",
        "body": "",
        "_trackingId": 220
    },
    {
        "_id": "b-505",
        "_parentId": "a-400",
        "_type": "block",
        "_classes": "",
        "title": "",
        "displayTitle": "",
        "body": "",
        "_trackingId": 34
    },
    {
        "_id": "b-507",
        "_parentId": "a-400",
        "_type": "block",
        "_classes": "",
        "title": "",
        "displayTitle": "",
        "body": "",
        "_trackingId": 221
    },
    {
        "_id": "b-510",
        "_parentId": "a-400",
        "_type": "block",
        "_classes": "",
        "title": " ",
        "displayTitle": "",
        "body": "",
        "_trackingId": 35
    },
    {
        "_id": "b-520",
        "_parentId": "a-400a",
        "_type": "block",
        "_classes": "",
        "title": " ",
        "displayTitle": "",
        "body": "",
        "_trackingId": 37
    },
    {
        "_id": "b-525",
        "_parentId": "a-400a",
        "_type": "block",
        "_classes": "",
        "title": " ",
        "displayTitle": "",
        "body": "",
        "_trackingId": 38
    },
    {
        "_id": "b-530",
        "_parentId": "a-400a",
        "_type": "block",
        "_classes": "",
        "title": " ",
        "displayTitle": "",
        "body": "",
        "_trackingId": 39
    },
    {
        "_id": "b-535",
        "_parentId": "a-400a",
        "_type": "block",
        "_classes": "",
        "title": "",
        "displayTitle": "",
        "body": "",
        "_trackingId": 40
    },
    {
        "_id": "b-537",
        "_parentId": "a-400b",
        "_type": "block",
        "_classes": "",
        "title": "",
        "displayTitle": "",
        "body": "",
        "_trackingId": 222
    },
    {
        "_id": "b-540",
        "_parentId": "a-400b",
        "_type": "block",
        "_classes": "",
        "title": " ",
        "displayTitle": "",
        "body": "",
        "_trackingId": 41
    },
    {
        "_id": "b-542",
        "_parentId": "a-400b",
        "_type": "block",
        "_classes": "",
        "title": " ",
        "displayTitle": "",
        "body": "",
        "_trackingId": 224
    },
    {
        "_id": "b-545",
        "_parentId": "a-400b",
        "_type": "block",
        "_classes": "",
        "title": " ",
        "displayTitle": "",
        "body": "",
        "_trackingId": 42
    },
    {
        "_id": "b-546",
        "_parentId": "a-400b",
        "_type": "block",
        "_classes": "",
        "title": " ",
        "displayTitle": "",
        "body": "",
        "_trackingId": 225
    },
    {
        "_id": "b-555",
        "_parentId": "a-400b",
        "_type": "block",
        "_classes": "",
        "title": " ",
        "displayTitle": "",
        "body": "",
        "_trackingId": 43
    },
    {
        "_id": "b-560",
        "_parentId": "a-400b",
        "_type": "block",
        "_classes": "",
        "title": " ",
        "displayTitle": "",
        "body": "",
        "_trackingId": 226
    },
    {
        "_id": "b-565",
        "_parentId": "a-400b",
        "_type": "block",
        "_classes": "",
        "title": " ",
        "displayTitle": "",
        "body": "",
        "_trackingId": 241
    },
    {
        "_id": "b-599",
        "_parentId": "a-400b",
        "_type": "block",
        "_classes": "",
        "title": " ",
        "displayTitle": "",
        "body": "",
        "_trackingId": 186
    },
    {
        "_id": "b-700",
        "_parentId": "a-500",
        "_type": "block",
        "_classes": "",
        "title": " ",
        "displayTitle": "",
        "body": "",
        "_trackingId": 50
    },
    {
        "_id": "b-705",
        "_parentId": "a-500",
        "_type": "block",
        "_classes": "",
        "title": " ",
        "displayTitle": "",
        "body": "",
        "_trackingId": 51
    },
    {
        "_id": "b-710",
        "_parentId": "a-500",
        "_type": "block",
        "_classes": "",
        "title": " ",
        "displayTitle": "",
        "body": "",
        "_trackingId": 52
    },
    {
        "_id": "b-715",
        "_parentId": "a-500",
        "_type": "block",
        "_classes": "",
        "title": " ",
        "displayTitle": "",
        "body": "",
        "_trackingId": 219
    },
    {
        "_id": "b-725",
        "_parentId": "a-500",
        "_type": "block",
        "_classes": "",
        "title": " ",
        "displayTitle": "",
        "body": "",
        "_trackingId": 202
    },
    {
        "_id": "b-730",
        "_parentId": "a-500",
        "_type": "block",
        "_classes": "",
        "title": " ",
        "displayTitle": "",
        "body": "",
        "_trackingId": 61
    },
    {
        "_id": "b-740",
        "_parentId": "a-500",
        "_type": "block",
        "_classes": "",
        "title": " ",
        "displayTitle": "",
        "body": "",
        "_trackingId": 198
    },
    {
        "_id": "b-750",
        "_parentId": "a-500",
        "_type": "block",
        "_classes": "",
        "title": " ",
        "displayTitle": "",
        "body": "",
        "_trackingId": 203
    },
    {
        "_id": "b-755",
        "_parentId": "a-500",
        "_type": "block",
        "_classes": "",
        "title": " ",
        "displayTitle": "",
        "body": "",
        "_trackingId": 204
    },
    {
        "_id": "b-795",
        "_parentId": "a-500",
        "_type": "block",
        "_classes": "",
        "title": " ",
        "displayTitle": "",
        "body": "",
        "_trackingId": 228
    },
    {
        "_id": "b-1100",
        "_parentId": "a-700",
        "_type": "block",
        "_classes": "",
        "title": " ",
        "displayTitle": "",
        "body": "",
        "_trackingId": 65
    },
    {
        "_id": "b-1105",
        "_parentId": "a-700",
        "_type": "block",
        "_classes": "",
        "title": " ",
        "displayTitle": "",
        "body": "",
        "_trackingId": 66
    },
    {
        "_id": "b-1115",
        "_parentId": "a-700",
        "_type": "block",
        "_classes": "",
        "title": " ",
        "displayTitle": "",
        "body": "",
        "_trackingId": 68
    },
    {
        "_id": "b-1120",
        "_parentId": "a-700",
        "_type": "block",
        "_classes": "",
        "title": " ",
        "displayTitle": "",
        "body": "",
        "_trackingId": 69
    },
    {
        "_id": "b-1195",
        "_parentId": "a-700",
        "_type": "block",
        "_classes": "",
        "title": " ",
        "displayTitle": "",
        "body": "",
        "_trackingId": 70
    }
]