[
	{
		"_id": "co-0",
		"_parentId": "course",
		"_type": "page",
		"_classes": "",
		"height":"570",
		"title": "Introduction",
		"displayTitle": "Introduction",
		"pageBody": "Get familiar with one of the most powerful Facebook ad objectives: Conversions.",
		"body": "Get familiar with one of the most powerful Facebook ad objectives: Conversions.",
		"_graphic": {
			"src": "course/en/images/contentobjects/co1.png",
			"alt": "Overview"
		},
		"linkText": "View",
		"durationLabel": "Duration:",
		"duration": "7 mins",
		"_pageLevelProgress": {
			"_isEnabled": true
		}
	},
    
    {
		"_id": "co-100",
		"_parentId": "course",
		"_type": "page",
		"_classes": "",
		"height":"570",
		"title": "Recipe for Conversions Ads",
		"displayTitle": "Recipe for Conversions Ads",
		"pageBody": "Know the ingredients for making a Conversions ad and understand how they come together. ",
		"body": "Know the ingredients for making a Conversions ad and understand how they come together. ",
		"_graphic": {
			"src": "course/en/images/contentobjects/co-2.png",
			"alt": "Overview"
		},
		"linkText": "View",
		"durationLabel": "Duration:",
		"duration": "6 mins",
		"_pageLevelProgress": {
			"_isEnabled": true
		}
	},
        {
		"_id": "co-150",
		"_parentId": "course",
		"_type": "page",
		"_classes": "",
		"height":"570",
		"title": "Nuts and Bolts",
		"displayTitle": "Nuts and Bolts",
		"pageBody": "Learn the basics of implementing pixel and app events and measuring conversions. ",
		"body": "Learn the basics of implementing pixel and app events and measuring conversions.   ",
		"_graphic": {
			"src": "course/en/images/contentobjects/before.png",
			"alt": "Overview"
		},
		"linkText": "View",
		"durationLabel": "Duration:",
		"duration": "8 mins",
		"_pageLevelProgress": {
			"_isEnabled": true
		}
	},
    {
		"_id": "co-200",
		"_parentId": "course",
		"_type": "page",
		"_classes": "",
		"height":"570",
		"title": "Your Conversion Arsenal ",
		"displayTitle": "Your Conversion Arsenal",
		"pageBody": "Get to know the extras that you can use to amp up your conversion ad.",
		"body": "Get to know the extras that you can use to amp up your conversion ad.",
		"_graphic": {
			"src": "course/en/images/contentobjects/arsenal.jpg",
			"alt": "Overview"
		},
		"linkText": "View",
		"durationLabel": "Duration:",
		"duration": "8 mins",
		"_pageLevelProgress": {
			"_isEnabled": true
		}
	},

    {
		"_id": "co-300",
		"_parentId": "course",
		"_type": "page",
		"_classes": "",
		"height":"570",
		"title": "Website Conversions",
		"displayTitle": "Website Conversion",
		"pageBody": "Learn to create ads that drive people to your website and complete your conversion goal.",
		"body": "Learn to create ads that drive people to your website and complete your conversion goal.",
		"_graphic": {
			"src": "course/en/images/contentobjects/co4.png",
			"alt": "Overview"
		},
		"linkText": "View",
		"durationLabel": "Duration:",
		"duration": "9 mins",
		"_pageLevelProgress": {
			"_isEnabled": true
		}
	},
      {
		"_id": "co-340a",
		"_parentId": "co-340a",
		"_type": "page",
		"_classes": "",
		"height":"570",
		"title": "Advanced Options for Website Conversion Ads",
		"displayTitle": "Advanced Options for Website Conversion Ads",
		"pageBody": "Learn how to apply advanced functions to get the most out of your website conversion ads.",
		"body": "Learn how to apply advanced functions to get the most out of your website conversion ads.",
		"_graphic": {
			"src": "course/en/images/contentobjects/co7.png",
			"alt": "Overview"
		},
		"linkText": "View",
		"durationLabel": "Duration:",
		"duration": "7 mins",
		"_pageLevelProgress": {
			"_isEnabled": true
		}
	},
    {
		"_id": "co-400",
		"_parentId": "course",
		"_type": "page",
		"_classes": "",
		"height":"570",
		"title": "Conversions in Messenger",
		"displayTitle": "Conversions in Messenger",
		"pageBody": "Learn to build ads that direct people to Messenger plus create tailored Messenger experiences for people who click your ad.",
		"body": "Learn to build ads that direct people to Messenger plus create tailored Messenger experiences for people who click your ad.",
		"_graphic": {
			"src": "course/en/images/contentobjects/co5.png",
			"alt": "Overview"
		},
		"linkText": "View",
		"durationLabel": "Duration:",
		"duration": "8 mins",
		"_pageLevelProgress": {
			"_isEnabled": true
		}
	},
    {
		"_id": "co-500",
		"_parentId": "course",
		"_type": "page",
		"_classes": "",
		"height":"570",
		"title": "In-App Conversions",
		"displayTitle": "In-App Conversions",
		"pageBody": "Learn to use the special features for creating ads that drive conversions in your mobile app.",
		"body": "Learn to use the special features for creating ads that drive conversions in your mobile app.",
		"_graphic": {
			"src": "course/en/images/contentobjects/co6.png",
			"alt": "Overview"
		},
		"linkText": "View",
		"durationLabel": "Duration:",
		"duration": "8 mins",
		"_pageLevelProgress": {
			"_isEnabled": true
		}
	},
      
     {
		"_id": "co-700",
		"_parentId": "course",
		"_type": "page",
		"_classes": "",
		"height":"570",
		"title": "Knowledge Check",
		"displayTitle": "Knowledge Check",
		"pageBody": "Ready to assess your knowledge of how to work with the conversions ad objective?",
		"body": "Ready to assess your knowledge of how to work with the conversions ad objective?",
		"_graphic": {
			"src": "course/en/images/contentobjects/co8.png",
			"alt": "Overview"
		},
		"linkText": "View",
		"durationLabel": "Duration:",
		"duration": "4 mins",
		"_pageLevelProgress": {
			"_isEnabled": true
		}
	}
]
